<?xml version="1.0" encoding="UTF-8"?>
<svg xmlns="http://www.w3.org/2000/svg" xmlns:xlink="http://www.w3.org/1999/xlink" width="100%" viewBox="0 0 408.19 124.72" version="1.1">
<defs>
<clipPath id="clip1">
  <path d="M 0 0 L 408 0 L 408 124.71875 L 0 124.71875 Z M 0 0 "/>
</clipPath>
<clipPath id="clip2">
  <path d="M 0 0 L 408.191406 0 L 408.191406 124.71875 L 0 124.71875 Z M 0 0 "/>
</clipPath>
<clipPath id="clip3">
  <path d="M 13.011719 8.753906 L 120.21875 8.753906 L 120.21875 115.960938 L 13.011719 115.960938 Z M 13.011719 8.753906 "/>
</clipPath>
</defs>
<g id="surface1">
<g clip-path="url(#clip1)" clip-rule="nonzero">
<path style=" stroke:none;fill-rule:nonzero;fill:rgb(100%,100%,100%);fill-opacity:1;" d="M 9.921875 0.496094 C 9.535156 0.496094 0.5 0.621094 0.5 9.914063 L 0.5 114.800781 C 0.5 115.183594 0.625 124.21875 9.921875 124.21875 L 398.269531 124.21875 C 398.652344 124.21875 407.6875 124.09375 407.6875 114.800781 L 407.6875 9.914063 C 407.6875 9.53125 407.5625 0.496094 398.269531 0.496094 L 9.921875 0.496094 "/>
</g>
<g clip-path="url(#clip2)" clip-rule="nonzero">
<path style="fill:none;stroke-width:10;stroke-linecap:butt;stroke-linejoin:miter;stroke:rgb(0%,39.99939%,70.199585%);stroke-opacity:1;stroke-miterlimit:4;" d="M 99.21875 1242.239063 C 95.351563 1242.239063 5 1240.989063 5 1148.059375 L 5 99.192188 C 5 95.364063 6.25 5.0125 99.21875 5.0125 L 3982.695313 5.0125 C 3986.523438 5.0125 4076.875 6.2625 4076.875 99.192188 L 4076.875 1148.059375 C 4076.875 1151.8875 4075.625 1242.239063 3982.695313 1242.239063 Z M 99.21875 1242.239063 " transform="matrix(0.1,0,0,-0.1,0,124.72)"/>
</g>
<g clip-path="url(#clip3)" clip-rule="nonzero">
<path style=" stroke:none;fill-rule:nonzero;fill:rgb(100%,100%,100%);fill-opacity:1;" d="M 66.613281 8.753906 C 37.011719 8.753906 13.011719 32.753906 13.011719 62.359375 C 13.011719 91.960938 37.011719 115.960938 66.613281 115.960938 C 96.21875 115.960938 120.21875 91.960938 120.21875 62.359375 C 120.21875 32.753906 96.21875 8.753906 66.613281 8.753906 "/>
</g>
<path style=" stroke:none;fill-rule:nonzero;fill:rgb(0%,39.99939%,70.199585%);fill-opacity:1;" d="M 40.3125 32.382813 C 40.996094 31.808594 40.863281 31.183594 40.441406 30.683594 C 39.851563 29.980469 39.238281 29.980469 38.714844 30.421875 L 38.171875 30.878906 L 39.800781 32.8125 L 40.3125 32.382813 "/>
<path style=" stroke:none;fill-rule:nonzero;fill:rgb(0%,39.99939%,70.199585%);fill-opacity:1;" d="M 36.34375 27.738281 L 35.871094 28.136719 L 37.230469 29.753906 L 37.691406 29.363281 C 38.273438 28.875 38.234375 28.339844 37.804688 27.828125 C 37.492188 27.457031 36.953125 27.222656 36.34375 27.738281 "/>
<path style=" stroke:none;fill-rule:nonzero;fill:rgb(0%,39.99939%,70.199585%);fill-opacity:1;" d="M 70.234375 16.898438 L 70.207031 16.898438 L 69.109375 20.992188 L 70.703125 21.121094 L 70.234375 16.898438 "/>
<path style=" stroke:none;fill-rule:nonzero;fill:rgb(0%,39.99939%,70.199585%);fill-opacity:1;" d="M 84.773438 99.394531 C 84.015625 99.769531 84.214844 100.488281 85.050781 102.1875 C 85.890625 103.894531 86.335938 104.480469 87.089844 104.109375 C 87.847656 103.738281 87.652344 103.027344 86.8125 101.320313 C 85.976563 99.621094 85.527344 99.027344 84.773438 99.394531 "/>
<path style=" stroke:none;fill-rule:nonzero;fill:rgb(0%,39.99939%,70.199585%);fill-opacity:1;" d="M 100.671875 84.152344 L 101.390625 82.917969 L 106.492188 85.898438 L 107.765625 83.710938 L 108.777344 84.300781 L 106.785156 87.71875 Z M 103.742188 91.980469 L 98.046875 87.777344 L 100.398438 84.59375 L 101.339844 85.289063 L 99.835938 87.324219 L 101.175781 88.3125 L 102.589844 86.398438 L 103.53125 87.09375 L 102.117188 89.007813 L 103.648438 90.136719 L 105.207031 88.027344 L 106.148438 88.71875 Z M 101.335938 94.695313 L 99.683594 96.449219 L 94.53125 91.59375 L 96.171875 89.855469 C 96.972656 89.003906 97.867188 88.691406 98.859375 89.621094 C 99.414063 90.144531 99.589844 90.8125 99.25 91.460938 L 99.261719 91.472656 C 99.878906 90.976563 100.660156 91.019531 101.34375 91.664063 C 102.152344 92.425781 102.480469 93.484375 101.335938 94.695313 M 97.785156 98.136719 L 96.582031 97.1875 L 95.125 98.378906 L 95.824219 99.746094 L 94.671875 100.6875 L 91.632813 94.03125 L 92.996094 92.910156 L 98.933594 97.191406 Z M 90.808594 103.175781 L 86.980469 97.21875 L 88.179688 96.449219 L 91.375 101.417969 L 93.503906 100.050781 L 94.136719 101.035156 Z M 87.554688 105.050781 C 85.632813 105.996094 84.71875 104.746094 83.769531 102.816406 C 82.820313 100.886719 82.386719 99.398438 84.308594 98.453125 C 86.230469 97.507813 87.144531 98.761719 88.09375 100.691406 C 89.042969 102.621094 89.476563 104.105469 87.554688 105.050781 M 82.136719 107.316406 C 80.109375 108.015625 79.359375 106.660156 78.65625 104.628906 C 77.953125 102.59375 77.707031 101.0625 79.730469 100.363281 C 81.660156 99.699219 82.292969 101.0625 82.628906 102.039063 L 81.28125 102.503906 C 80.945313 101.53125 80.601563 101.175781 79.992188 101.386719 C 79.308594 101.625 79.382813 102.363281 80.039063 104.253906 C 80.738281 106.277344 81.144531 106.546875 81.726563 106.347656 C 82.214844 106.179688 82.480469 105.800781 81.984375 104.359375 L 83.332031 103.894531 C 83.832031 105.335938 83.90625 106.707031 82.136719 107.316406 M 74.820313 109.121094 L 73.304688 102.207031 L 77.167969 101.363281 L 77.417969 102.503906 L 74.949219 103.046875 L 75.304688 104.671875 L 77.628906 104.164063 L 77.878906 105.304688 L 75.554688 105.816406 L 75.964844 107.675781 L 78.53125 107.113281 L 78.78125 108.253906 Z M 69.082031 109.75 L 67.148438 104.867188 L 67.125 104.867188 L 67.320313 109.820313 L 66.011719 109.871094 L 65.734375 102.796875 L 67.378906 102.734375 L 69.292969 107.511719 L 69.3125 107.511719 L 69.125 102.667969 L 70.429688 102.613281 L 70.707031 109.6875 Z M 63.46875 109.734375 L 63.277344 108.210938 L 61.402344 108.042969 L 60.941406 109.503906 L 59.460938 109.367188 L 61.96875 102.492188 L 63.722656 102.652344 L 64.949219 109.867188 Z M 57.027344 108.894531 L 58.359375 103.402344 L 58.339844 103.398438 L 55.785156 108.59375 L 54.707031 108.332031 L 54.816406 102.542969 L 54.796875 102.539063 L 53.460938 108.027344 L 52.191406 107.71875 L 53.859375 100.839844 L 55.921875 101.34375 L 55.726563 106.4375 L 55.746094 106.441406 L 57.917969 101.824219 L 59.96875 102.324219 L 58.296875 109.203125 Z M 51.078125 105.894531 C 50.808594 106.589844 50.699219 106.960938 50.894531 107.191406 L 50.871094 107.246094 L 49.441406 106.664063 C 49.386719 106.425781 49.460938 106.167969 49.554688 105.90625 L 50.03125 104.636719 C 50.21875 104.113281 50.117188 103.707031 49.585938 103.488281 L 48.878906 103.203125 L 47.75 105.976563 L 46.425781 105.4375 L 49.09375 98.882813 L 51.535156 99.875 C 52.621094 100.316406 53.050781 101.152344 52.59375 102.273438 C 52.238281 103.148438 51.652344 103.59375 50.84375 103.445313 L 50.835938 103.464844 C 51.6875 103.949219 51.625 104.503906 51.078125 105.894531 M 45.320313 104.902344 L 41.773438 102.941406 L 45.199219 96.75 L 48.660156 98.664063 L 48.09375 99.6875 L 45.882813 98.464844 L 45.078125 99.921875 L 47.15625 101.070313 L 46.589844 102.09375 L 44.511719 100.941406 L 43.589844 102.609375 L 45.886719 103.878906 Z M 39.683594 101.570313 L 40.066406 101.039063 L 40.050781 101.027344 C 39.453125 101.28125 38.917969 101.191406 38.382813 100.800781 C 36.957031 99.777344 37.445313 98.511719 38.875 96.527344 C 40.269531 94.597656 41.429688 93.933594 42.910156 95.003906 C 44.179688 95.917969 44.222656 96.941406 43.382813 98.105469 L 42.273438 97.304688 C 42.582031 96.878906 42.777344 96.203125 42.3125 95.867188 C 41.75 95.460938 41.105469 95.875 40.074219 97.304688 C 39.078125 98.6875 38.578125 99.648438 39.242188 100.128906 C 39.519531 100.328125 40.175781 100.347656 40.621094 99.730469 L 41.042969 99.144531 L 40.28125 98.59375 L 40.898438 97.742188 L 42.769531 99.09375 L 40.535156 102.183594 Z M 35.9375 94.652344 L 34.28125 92.941406 L 32.914063 94.265625 L 34.742188 96.152344 L 33.902344 96.96875 L 31.082031 94.054688 L 36.164063 89.132813 L 38.914063 91.972656 L 38.074219 92.789063 L 36.316406 90.972656 L 35.121094 92.128906 L 36.777344 93.839844 Z M 29.214844 91.78125 L 31.71875 89.882813 L 30.714844 88.554688 L 28.210938 90.457031 L 27.347656 89.320313 L 32.984375 85.039063 L 33.847656 86.175781 L 31.691406 87.8125 L 32.699219 89.140625 L 34.855469 87.503906 L 35.71875 88.640625 L 30.078125 92.917969 Z M 25.21875 85.824219 L 30.316406 82.828125 L 29.53125 81.496094 L 30.539063 80.902344 L 32.832031 84.800781 L 31.820313 85.390625 L 31.039063 84.058594 L 25.945313 87.054688 Z M 38.898438 74.597656 C 38.949219 71.984375 39.300781 69.527344 40.21875 66.957031 C 43.222656 72.78125 43.878906 79.941406 43.269531 80.386719 L 43.113281 80.503906 C 42.804688 80.707031 31.203125 79.347656 31.355469 67.246094 C 34.863281 70.382813 37.019531 72.707031 38.898438 74.597656 M 31.585938 56.59375 C 33.753906 58.984375 34.675781 61.222656 35.84375 63.839844 C 36.964844 62.046875 38.53125 60.503906 40.402344 58.835938 C 39.890625 65.714844 38.355469 71.15625 37.289063 71.238281 C 36.351563 71.265625 30.613281 66.753906 31.585938 56.59375 M 35.757813 26.105469 C 36.980469 25.078125 38.277344 24.964844 39.28125 26.160156 C 39.980469 26.996094 40.085938 28.015625 39.515625 28.722656 L 39.53125 28.742188 C 40.132813 28.375 41.117188 27.941406 42.351563 29.40625 C 43.058594 30.25 43.648438 31.707031 41.652344 33.382813 L 39.160156 35.476563 L 33.136719 28.308594 Z M 42.117188 21.652344 L 45.929688 28.207031 L 48.683594 26.605469 L 49.582031 28.148438 L 44.921875 30.855469 L 40.214844 22.761719 Z M 48.742188 18.414063 L 51.167969 24.890625 C 51.425781 25.578125 51.847656 25.882813 52.402344 25.675781 C 52.953125 25.46875 53.074219 24.960938 52.816406 24.273438 L 50.390625 17.800781 L 52.453125 17.027344 L 54.652344 22.898438 C 55.296875 24.617188 55.3125 26.152344 52.914063 27.050781 C 50.519531 27.945313 49.523438 26.78125 48.878906 25.058594 L 46.679688 19.1875 Z M 60.429688 15.347656 L 60.753906 17.101563 L 57.59375 17.6875 L 57.9375 19.53125 L 60.90625 18.980469 L 61.230469 20.734375 L 58.261719 21.285156 L 58.652344 23.386719 L 61.953125 22.773438 L 62.28125 24.527344 L 56.8125 25.542969 L 55.105469 16.335938 Z M 58.324219 36.246094 C 59.894531 36.691406 61.324219 37.511719 62.660156 38.386719 C 56.117188 39.101563 53.484375 37.691406 53.34375 37.136719 L 53.347656 37.089844 C 53.421875 36.527344 57.417969 33.066406 63.125 34.046875 C 61.523438 35.113281 60.269531 35.445313 58.324219 36.246094 M 69.03125 15.09375 L 71.777344 15.308594 L 73.375 24.828125 L 71.097656 24.648438 L 70.898438 22.84375 L 68.660156 22.667969 L 68.195313 24.421875 L 65.921875 24.242188 Z M 76.386719 15.9375 L 78.828125 16.609375 L 78.960938 22.957031 L 78.984375 22.964844 L 80.597656 17.09375 L 82.570313 17.636719 L 80.089844 26.667969 L 77.6875 26.007813 L 77.535156 19.273438 L 77.511719 19.265625 L 75.800781 25.488281 L 73.90625 24.96875 Z M 88.207031 19.921875 C 90.761719 21.179688 89.996094 22.996094 89.527344 23.949219 L 87.621094 23.011719 C 87.886719 22.46875 88.253906 21.582031 87.523438 21.222656 C 86.710938 20.824219 86.210938 21.601563 85.109375 23.835938 C 83.980469 26.128906 83.734375 26.929688 84.523438 27.316406 C 85.191406 27.648438 85.726563 27.152344 86.296875 26 L 86.429688 25.730469 L 85.5 25.269531 L 86.148438 23.953125 L 88.914063 25.316406 L 86.695313 29.820313 L 85.34375 29.15625 L 85.691406 28.332031 L 85.664063 28.320313 C 84.988281 28.921875 84.144531 28.769531 83.378906 28.390625 C 81.273438 27.355469 81.691406 25.617188 82.980469 22.992188 C 84.339844 20.238281 85.40625 18.542969 88.207031 19.921875 M 97.433594 26.03125 L 96.378906 27.472656 L 93.789063 25.574219 L 92.679688 27.085938 L 95.113281 28.867188 L 94.058594 30.308594 L 91.625 28.527344 L 90.363281 30.25 L 93.074219 32.234375 L 92.019531 33.671875 L 87.53125 30.386719 L 93.066406 22.832031 Z M 100.871094 29.28125 L 95.472656 34.605469 L 97.710938 36.875 L 96.441406 38.125 L 92.65625 34.289063 L 99.324219 27.714844 Z M 89.183594 80.855469 L 89.035156 80.738281 C 88.460938 80.292969 89.554688 73.417969 92.898438 67.894531 C 93.644531 70.394531 93.839844 72.769531 93.726563 75.289063 C 95.707031 73.515625 98.417969 69.699219 101.222656 68.011719 C 99.507813 79.183594 89.472656 81.058594 89.183594 80.855469 M 81.371094 86.644531 L 81.335938 86.570313 C 81.253906 86.207031 83.222656 78.992188 88.289063 76.824219 C 88.097656 79.71875 88.09375 81.859375 87.347656 83.300781 C 89.683594 82.511719 94.40625 79.953125 97.4375 79.589844 C 90.414063 90.847656 81.558594 86.953125 81.371094 86.644531 M 61.046875 80.34375 C 53.847656 78 48.644531 71.238281 48.644531 63.257813 C 48.644531 61.207031 48.992188 59.242188 49.625 57.40625 C 53.324219 57.523438 60.363281 56.285156 63.074219 59.957031 C 67.628906 66.128906 63.242188 76.867188 61.046875 80.34375 M 84.582031 63.257813 C 84.582031 71.238281 79.378906 78 72.183594 80.34375 C 69.984375 76.867188 65.597656 66.128906 70.152344 59.957031 C 72.863281 56.285156 79.90625 57.523438 83.601563 57.40625 C 84.234375 59.242188 84.582031 61.207031 84.582031 63.257813 M 81.546875 36.328125 C 84.457031 35.570313 86.472656 36.789063 87.210938 39.128906 C 84.769531 38.800781 82.402344 38.117188 81.546875 36.328125 M 98.628906 48.136719 C 101.578125 54.609375 97.984375 60.453125 97.269531 60.707031 L 97.203125 60.726563 C 96.4375 60.722656 94.117188 57.859375 92.636719 50.558594 C 94.175781 51.875 95.796875 52.992188 96.835938 54.722656 C 97.320313 52.171875 97.695313 50.359375 98.628906 48.136719 M 93.507813 41.007813 C 98.179688 45.140625 97.054688 50.964844 96.507813 51.421875 L 96.457031 51.460938 C 95.78125 51.730469 92.613281 50.503906 89.203125 44.46875 C 90.980469 44.976563 92.761719 45.609375 94.230469 46.625 C 93.84375 44.410156 93.398438 43.117188 93.507813 41.007813 M 87.75 36.808594 C 92.261719 38.738281 92.742188 43.191406 92.429688 43.644531 L 92.402344 43.683594 C 91.949219 44.03125 89.253906 43.859375 85.269531 40.277344 C 86.738281 40.242188 88.238281 40.296875 89.59375 40.699219 C 88.789063 39.1875 88.152344 38.355469 87.75 36.808594 M 83.035156 55.96875 C 79.855469 55.617188 71.734375 55.03125 67.042969 54.992188 C 68.597656 54.832031 69.808594 53.535156 69.808594 51.960938 C 69.808594 50.277344 68.429688 48.914063 66.722656 48.914063 C 65.019531 48.914063 63.636719 50.277344 63.636719 51.960938 C 63.636719 53.53125 64.84375 54.828125 66.394531 54.988281 C 61.734375 55.011719 53.421875 55.613281 50.191406 55.96875 C 52.988281 49.679688 59.285156 45.289063 66.613281 45.289063 C 73.941406 45.289063 80.238281 49.679688 83.035156 55.96875 M 75.511719 40.664063 C 73.519531 41.09375 71.21875 39.484375 69.128906 37.574219 C 71.453125 36.679688 73.894531 37.636719 75.511719 40.664063 M 66.265625 36.703125 C 67.539063 37.464844 68.59375 38.515625 69.554688 39.597656 C 63.628906 38.636719 61.660156 36.785156 61.671875 36.273438 L 61.691406 36.226563 C 61.890625 35.761719 66.25 33.730469 71.027344 35.953125 C 69.359375 36.492188 68.175781 36.476563 66.265625 36.703125 M 55.5625 39.046875 C 48.992188 42.75 45.28125 42.199219 44.78125 41.597656 L 44.757813 41.535156 C 44.480469 40.828125 46.921875 35.386719 53.660156 34.082031 C 52.613281 36.0625 51.152344 36.546875 49.566406 38.359375 C 51.53125 38.207031 53.578125 38.570313 55.5625 39.046875 M 43.460938 49.976563 C 40.222656 58.191406 36.917969 61.058594 36.023438 60.90625 L 35.949219 60.867188 C 35.167969 60.421875 32.171875 52.867188 36.957031 45.921875 C 37.589844 48.707031 37.652344 50.898438 37.691406 53.972656 C 39.265625 52.167969 41.386719 51.199219 43.460938 49.976563 M 38.988281 50.925781 C 38.390625 50.332031 36.523438 42.632813 44.367188 38.449219 C 43.542969 41.363281 43.316406 42.84375 42.273438 44.796875 C 44.296875 43.699219 46.339844 43.253906 48.65625 42.785156 C 43.273438 49.75 39.78125 51.300781 38.988281 50.925781 M 44.46875 76.667969 C 49.539063 78.832031 51.503906 86.050781 51.425781 86.414063 L 51.386719 86.488281 C 51.203125 86.792969 42.347656 90.691406 35.324219 79.433594 C 38.355469 79.796875 43.078125 82.355469 45.410156 83.140625 C 44.667969 81.703125 44.660156 79.5625 44.46875 76.667969 M 67.683594 87.953125 C 69.589844 88.578125 74.050781 91.433594 76.351563 93.492188 C 77.34375 94.378906 74.976563 94.507813 74.441406 94.015625 C 69.65625 89.617188 68.15625 88.625 66.613281 88.542969 C 65.074219 88.625 63.570313 89.617188 58.789063 94.015625 C 58.253906 94.507813 55.886719 94.378906 56.878906 93.492188 C 59.175781 91.433594 63.640625 88.578125 65.546875 87.953125 C 65.78125 87.878906 61.289063 86.261719 56.332031 89.777344 C 53.878906 91.519531 51.160156 93.570313 47.320313 91.65625 C 44.5 90.253906 43.375 88.101563 43.375 88.101563 C 46.234375 88.941406 49.699219 89.15625 54.660156 86.84375 C 60.03125 84.339844 65.082031 86.738281 66.613281 87.234375 C 68.148438 86.738281 73.195313 84.339844 78.566406 86.84375 C 83.53125 89.15625 86.992188 88.941406 89.855469 88.101563 C 89.855469 88.101563 88.726563 90.253906 85.90625 91.65625 C 82.070313 93.570313 79.351563 91.519531 76.898438 89.777344 C 71.941406 86.261719 67.445313 87.878906 67.683594 87.953125 M 95.171875 71.921875 C 94.179688 71.71875 93.113281 64.742188 93.347656 57.460938 C 94.925781 59.417969 96.113281 61.554688 96.910156 63.867188 C 98.28125 61.246094 99.921875 58.753906 101.84375 56.382813 C 102.398438 64.5625 96.042969 72.054688 95.171875 71.921875 M 66.613281 10.484375 C 37.964844 10.484375 14.738281 33.707031 14.738281 62.359375 C 14.738281 91.007813 37.964844 114.230469 66.613281 114.230469 C 95.265625 114.230469 118.488281 91.007813 118.488281 62.359375 C 118.488281 33.707031 95.265625 10.484375 66.613281 10.484375 "/>
<path style=" stroke:none;fill-rule:nonzero;fill:rgb(0%,39.99939%,70.199585%);fill-opacity:1;" d="M 98.769531 92.777344 L 98.347656 93.226563 L 99.898438 94.6875 L 100.28125 94.285156 C 100.75 93.785156 100.890625 93.277344 100.289063 92.714844 C 99.691406 92.148438 99.199219 92.324219 98.769531 92.777344 "/>
<path style=" stroke:none;fill-rule:nonzero;fill:rgb(0%,39.99939%,70.199585%);fill-opacity:1;" d="M 62.722656 103.792969 L 61.757813 106.898438 L 63.136719 107.027344 L 62.746094 103.796875 L 62.722656 103.792969 "/>
<path style=" stroke:none;fill-rule:nonzero;fill:rgb(0%,39.99939%,70.199585%);fill-opacity:1;" d="M 51.195313 101.929688 C 51.441406 101.324219 51.242188 100.890625 50.644531 100.648438 L 50.019531 100.394531 L 49.25 102.285156 L 49.800781 102.507813 C 50.433594 102.765625 50.90625 102.636719 51.195313 101.929688 "/>
<path style=" stroke:none;fill-rule:nonzero;fill:rgb(0%,39.99939%,70.199585%);fill-opacity:1;" d="M 95.648438 96.4375 L 93.101563 94.414063 L 93.085938 94.425781 L 94.574219 97.320313 L 95.648438 96.4375 "/>
<path style=" stroke:none;fill-rule:nonzero;fill:rgb(0%,39.99939%,70.199585%);fill-opacity:1;" d="M 96.632813 90.898438 L 96.277344 91.273438 L 97.628906 92.546875 L 97.90625 92.25 C 98.441406 91.679688 98.492188 91.238281 98.007813 90.78125 C 97.519531 90.320313 97.113281 90.386719 96.632813 90.898438 "/>
<path style=" stroke:none;fill-rule:nonzero;fill:rgb(0%,39.99939%,70.199585%);fill-opacity:1;" d="M 133.382813 14.148438 L 136.417969 14.148438 L 137.804688 22.554688 L 137.847656 22.554688 L 139.324219 14.148438 L 142.625 14.148438 L 144.1875 22.554688 L 144.230469 22.554688 L 145.660156 14.148438 L 148.566406 14.148438 L 146.011719 25.988281 L 142.558594 25.988281 L 140.996094 17.582031 L 140.953125 17.582031 L 139.476563 25.988281 L 135.957031 25.988281 L 133.382813 14.148438 "/>
<path style=" stroke:none;fill-rule:nonzero;fill:rgb(0%,39.99939%,70.199585%);fill-opacity:1;" d="M 148.871094 14.148438 L 151.90625 14.148438 L 153.292969 22.554688 L 153.335938 22.554688 L 154.8125 14.148438 L 158.113281 14.148438 L 159.675781 22.554688 L 159.71875 22.554688 L 161.148438 14.148438 L 164.054688 14.148438 L 161.5 25.988281 L 158.046875 25.988281 L 156.484375 17.582031 L 156.4375 17.582031 L 154.964844 25.988281 L 151.445313 25.988281 L 148.871094 14.148438 "/>
<path style=" stroke:none;fill-rule:nonzero;fill:rgb(0%,39.99939%,70.199585%);fill-opacity:1;" d="M 164.359375 14.148438 L 167.394531 14.148438 L 168.78125 22.554688 L 168.824219 22.554688 L 170.300781 14.148438 L 173.601563 14.148438 L 175.160156 22.554688 L 175.207031 22.554688 L 176.636719 14.148438 L 179.539063 14.148438 L 176.988281 25.988281 L 173.53125 25.988281 L 171.972656 17.582031 L 171.925781 17.582031 L 170.453125 25.988281 L 166.933594 25.988281 L 164.359375 14.148438 "/>
<path style=" stroke:none;fill-rule:nonzero;fill:rgb(0%,39.99939%,70.199585%);fill-opacity:1;" d="M 182.992188 22.554688 L 182.992188 25.988281 L 180.089844 25.988281 L 180.089844 22.554688 L 182.992188 22.554688 "/>
<path style=" stroke:none;fill-rule:nonzero;fill:rgb(0%,39.99939%,70.199585%);fill-opacity:1;" d="M 189.835938 23.964844 C 191.15625 23.964844 191.417969 22.644531 191.417969 20.070313 C 191.417969 17.496094 191.15625 16.175781 189.835938 16.175781 C 188.492188 16.175781 188.230469 17.496094 188.230469 20.070313 C 188.230469 22.644531 188.492188 23.964844 189.835938 23.964844 Z M 185.191406 10.277344 L 188.230469 10.277344 L 188.230469 15.25 L 188.273438 15.25 C 188.910156 14.304688 189.679688 13.84375 190.824219 13.84375 C 193.3125 13.84375 194.457031 15.667969 194.457031 20.070313 C 194.457031 24.46875 193.3125 26.296875 190.824219 26.296875 C 189.636719 26.296875 188.800781 25.835938 188.140625 24.734375 L 188.097656 24.734375 L 188.097656 25.988281 L 185.191406 25.988281 L 185.191406 10.277344 "/>
<path style=" stroke:none;fill-rule:nonzero;fill:rgb(0%,39.99939%,70.199585%);fill-opacity:1;" d="M 196.300781 10.277344 L 199.339844 10.277344 L 199.339844 25.988281 L 196.300781 25.988281 L 196.300781 10.277344 "/>
<path style=" stroke:none;fill-rule:nonzero;fill:rgb(0%,39.99939%,70.199585%);fill-opacity:1;" d="M 206.996094 20.070313 C 206.578125 20.378906 206.070313 20.574219 205.695313 20.664063 C 204.464844 20.925781 203.980469 21.519531 203.980469 22.578125 C 203.980469 23.480469 204.3125 24.226563 205.125 24.226563 C 205.9375 24.226563 206.996094 23.699219 206.996094 22.402344 Z M 201.449219 17.78125 L 201.449219 17.496094 C 201.449219 14.765625 203.320313 13.84375 205.609375 13.84375 C 209.21875 13.84375 209.898438 15.339844 209.898438 17.472656 L 209.898438 23.699219 C 209.898438 24.800781 209.964844 25.304688 210.273438 25.988281 L 207.367188 25.988281 C 207.171875 25.613281 207.082031 25.152344 206.996094 24.757813 L 206.949219 24.757813 C 206.246094 25.988281 205.390625 26.296875 203.9375 26.296875 C 201.824219 26.296875 201.074219 24.492188 201.074219 22.90625 C 201.074219 20.683594 201.976563 19.78125 204.066406 19.210938 L 205.785156 18.75 C 206.6875 18.507813 206.996094 18.15625 206.996094 17.363281 C 206.996094 16.460938 206.597656 15.910156 205.585938 15.910156 C 204.660156 15.910156 204.179688 16.527344 204.179688 17.449219 L 204.179688 17.78125 L 201.449219 17.78125 "/>
<path style=" stroke:none;fill-rule:nonzero;fill:rgb(0%,39.99939%,70.199585%);fill-opacity:1;" d="M 218.125 24.601563 L 218.082031 24.601563 C 217.445313 25.769531 216.34375 26.296875 215.066406 26.296875 C 213.175781 26.296875 212.054688 25.261719 212.054688 22.929688 L 212.054688 14.148438 L 215.089844 14.148438 L 215.089844 22.3125 C 215.089844 23.503906 215.484375 23.964844 216.386719 23.964844 C 217.421875 23.964844 217.992188 23.324219 217.992188 22.007813 L 217.992188 14.148438 L 221.03125 14.148438 L 221.03125 25.988281 L 218.125 25.988281 L 218.125 24.601563 "/>
<path style=" stroke:none;fill-rule:nonzero;fill:rgb(0%,39.99939%,70.199585%);fill-opacity:1;" d="M 228.753906 18.726563 C 228.6875 16.921875 228.464844 15.910156 227.210938 15.910156 C 226.003906 15.910156 225.648438 17.164063 225.648438 18.265625 L 225.648438 18.726563 Z M 225.648438 20.53125 L 225.648438 21.476563 C 225.648438 22.863281 226.023438 24.226563 227.144531 24.226563 C 228.15625 24.226563 228.574219 23.457031 228.753906 22.007813 L 231.480469 22.007813 C 231.371094 24.757813 230.050781 26.296875 227.1875 26.296875 C 222.789063 26.296875 222.613281 22.90625 222.613281 19.960938 C 222.613281 16.789063 223.230469 13.84375 227.320313 13.84375 C 230.863281 13.84375 231.65625 16.21875 231.65625 19.847656 L 231.65625 20.53125 L 225.648438 20.53125 "/>
<path style=" stroke:none;fill-rule:nonzero;fill:rgb(0%,39.99939%,70.199585%);fill-opacity:1;" d="M 233.238281 14.148438 L 236.144531 14.148438 L 236.144531 15.734375 L 236.1875 15.734375 C 236.804688 14.589844 237.660156 13.84375 238.914063 13.84375 C 239.09375 13.84375 239.289063 13.863281 239.46875 13.886719 L 239.46875 16.789063 C 239.15625 16.769531 238.828125 16.746094 238.519531 16.746094 C 237.464844 16.746094 236.277344 17.296875 236.277344 18.882813 L 236.277344 25.988281 L 233.238281 25.988281 L 233.238281 14.148438 "/>
<path style=" stroke:none;fill-rule:nonzero;fill:rgb(0%,39.99939%,70.199585%);fill-opacity:1;" d="M 245.933594 18.332031 L 245.933594 20.925781 L 239.730469 20.925781 L 239.730469 18.332031 L 245.933594 18.332031 "/>
<path style=" stroke:none;fill-rule:nonzero;fill:rgb(0%,39.99939%,70.199585%);fill-opacity:1;" d="M 253.613281 18.726563 C 253.546875 16.921875 253.324219 15.910156 252.070313 15.910156 C 250.863281 15.910156 250.511719 17.164063 250.511719 18.265625 L 250.511719 18.726563 Z M 250.511719 20.53125 L 250.511719 21.476563 C 250.511719 22.863281 250.882813 24.226563 252.007813 24.226563 C 253.019531 24.226563 253.4375 23.457031 253.613281 22.007813 L 256.339844 22.007813 C 256.230469 24.757813 254.910156 26.296875 252.050781 26.296875 C 247.648438 26.296875 247.472656 22.90625 247.472656 19.960938 C 247.472656 16.789063 248.089844 13.84375 252.183594 13.84375 C 255.726563 13.84375 256.515625 16.21875 256.515625 19.847656 L 256.515625 20.53125 L 250.511719 20.53125 "/>
<path style=" stroke:none;fill-rule:nonzero;fill:rgb(0%,39.99939%,70.199585%);fill-opacity:1;" d="M 258.097656 14.148438 L 261.003906 14.148438 L 261.003906 15.535156 L 261.046875 15.535156 C 261.6875 14.371094 262.785156 13.84375 264.0625 13.84375 C 265.953125 13.84375 267.074219 14.875 267.074219 17.210938 L 267.074219 25.988281 L 264.039063 25.988281 L 264.039063 17.824219 C 264.039063 16.636719 263.644531 16.175781 262.742188 16.175781 C 261.707031 16.175781 261.136719 16.8125 261.136719 18.132813 L 261.136719 25.988281 L 258.097656 25.988281 L 258.097656 14.148438 "/>
<path style=" stroke:none;fill-rule:nonzero;fill:rgb(0%,39.99939%,70.199585%);fill-opacity:1;" d="M 273.410156 23.523438 C 274.6875 23.523438 275.0625 22.136719 275.0625 20.136719 C 275.0625 17.253906 274.6875 16.175781 273.476563 16.175781 C 272.136719 16.175781 271.894531 17.253906 271.894531 20.441406 C 271.894531 22.070313 272.136719 23.523438 273.410156 23.523438 Z M 277.96875 14.148438 L 277.96875 25.394531 C 277.96875 28.519531 276.578125 30.035156 273.039063 30.035156 C 270.464844 30.035156 269.011719 28.890625 269.011719 26.867188 L 271.914063 26.867188 C 271.914063 27.265625 272.09375 27.574219 272.378906 27.769531 C 272.664063 27.96875 273.015625 28.101563 273.390625 28.101563 C 274.621094 28.101563 275.0625 27.175781 275.0625 25.964844 L 275.0625 24.402344 L 275.019531 24.402344 C 274.402344 25.285156 273.457031 25.855469 272.488281 25.855469 C 270.066406 25.855469 268.855469 24.207031 268.855469 19.871094 C 268.855469 17.097656 269.273438 13.84375 272.574219 13.84375 C 273.410156 13.84375 274.445313 14.238281 275.019531 15.46875 L 275.0625 15.46875 L 275.0625 14.148438 L 277.96875 14.148438 "/>
<path style=" stroke:none;fill-rule:nonzero;fill:rgb(0%,39.99939%,70.199585%);fill-opacity:1;" d="M 285.796875 18.726563 C 285.730469 16.921875 285.511719 15.910156 284.257813 15.910156 C 283.046875 15.910156 282.695313 17.164063 282.695313 18.265625 L 282.695313 18.726563 Z M 282.695313 20.53125 L 282.695313 21.476563 C 282.695313 22.863281 283.070313 24.226563 284.191406 24.226563 C 285.203125 24.226563 285.621094 23.457031 285.796875 22.007813 L 288.527344 22.007813 C 288.414063 24.757813 287.097656 26.296875 284.234375 26.296875 C 279.835938 26.296875 279.660156 22.90625 279.660156 19.960938 C 279.660156 16.789063 280.273438 13.84375 284.367188 13.84375 C 287.910156 13.84375 288.703125 16.21875 288.703125 19.847656 L 288.703125 20.53125 L 282.695313 20.53125 "/>
<path style=" stroke:none;fill-rule:nonzero;fill:rgb(0%,39.99939%,70.199585%);fill-opacity:1;" d="M 290.394531 10.277344 L 293.433594 10.277344 L 293.433594 25.988281 L 290.394531 25.988281 L 290.394531 10.277344 "/>
<path style=" stroke:none;fill-rule:nonzero;fill:rgb(0%,39.99939%,70.199585%);fill-opacity:1;" d="M 298.644531 22.554688 L 298.644531 25.988281 L 295.742188 25.988281 L 295.742188 22.554688 L 298.644531 22.554688 "/>
<path style=" stroke:none;fill-rule:nonzero;fill:rgb(0%,39.99939%,70.199585%);fill-opacity:1;" d="M 305.179688 23.964844 C 306.519531 23.964844 306.785156 22.644531 306.785156 20.070313 C 306.785156 17.496094 306.519531 16.175781 305.179688 16.175781 C 303.859375 16.175781 303.597656 17.496094 303.597656 20.070313 C 303.597656 22.644531 303.859375 23.964844 305.179688 23.964844 Z M 306.917969 24.734375 L 306.875 24.734375 C 306.214844 25.835938 305.378906 26.296875 304.1875 26.296875 C 301.703125 26.296875 300.558594 24.46875 300.558594 20.070313 C 300.558594 15.667969 301.703125 13.84375 304.1875 13.84375 C 305.335938 13.84375 306.105469 14.304688 306.742188 15.25 L 306.785156 15.25 L 306.785156 10.277344 L 309.820313 10.277344 L 309.820313 25.988281 L 306.917969 25.988281 L 306.917969 24.734375 "/>
<path style=" stroke:none;fill-rule:nonzero;fill:rgb(0%,39.99939%,70.199585%);fill-opacity:1;" d="M 317.542969 18.726563 C 317.476563 16.921875 317.257813 15.910156 316.003906 15.910156 C 314.792969 15.910156 314.441406 17.164063 314.441406 18.265625 L 314.441406 18.726563 Z M 314.441406 20.53125 L 314.441406 21.476563 C 314.441406 22.863281 314.816406 24.226563 315.9375 24.226563 C 316.949219 24.226563 317.367188 23.457031 317.542969 22.007813 L 320.273438 22.007813 C 320.160156 24.757813 318.84375 26.296875 315.980469 26.296875 C 311.582031 26.296875 311.40625 22.90625 311.40625 19.960938 C 311.40625 16.789063 312.019531 13.84375 316.113281 13.84375 C 319.65625 13.84375 320.449219 16.21875 320.449219 19.847656 L 320.449219 20.53125 L 314.441406 20.53125 "/>
<path style=" stroke:none;fill-rule:nonzero;fill:rgb(0%,39.99939%,70.199585%);fill-opacity:1;" d="M 328.179688 7.59375 L 322.078125 26.039063 L 320.730469 26.039063 L 326.828125 7.59375 L 328.179688 7.59375 "/>
<path style=" stroke:none;fill-rule:nonzero;fill:rgb(0%,39.99939%,70.199585%);fill-opacity:1;" d="M 329.378906 12.464844 L 330.878906 12.464844 L 330.878906 21.8125 C 330.878906 23.964844 331.605469 24.789063 333.179688 24.789063 C 334.878906 24.789063 336.078125 23.4375 336.078125 21.390625 L 336.078125 12.464844 L 337.578125 12.464844 L 337.578125 25.738281 L 336.230469 25.738281 L 336.230469 23.886719 L 336.179688 23.886719 C 335.429688 25.363281 334.128906 26.039063 332.777344 26.039063 C 330.753906 26.039063 329.378906 24.988281 329.378906 22.488281 L 329.378906 12.464844 "/>
<path style=" stroke:none;fill-rule:nonzero;fill:rgb(0%,39.99939%,70.199585%);fill-opacity:1;" d="M 339.480469 24.488281 L 345.777344 13.714844 L 339.804688 13.714844 L 339.804688 12.464844 L 347.378906 12.464844 L 347.378906 13.714844 L 341.078125 24.488281 L 347.378906 24.488281 L 347.378906 25.738281 L 339.480469 25.738281 L 339.480469 24.488281 "/>
<path style=" stroke:none;fill-rule:nonzero;fill:rgb(0%,39.99939%,70.199585%);fill-opacity:1;" d="M 349.003906 13.589844 C 349.054688 10.167969 350.679688 8.042969 354.003906 8.042969 C 356.402344 8.042969 358.578125 9.46875 358.578125 12.839844 C 358.578125 14.988281 357.929688 16.414063 355.652344 18.289063 L 353.730469 19.863281 C 351.878906 21.390625 350.902344 22.539063 350.628906 24.386719 L 358.726563 24.386719 L 358.726563 25.738281 L 348.929688 25.738281 C 348.929688 22.8125 350.253906 20.914063 352.628906 18.914063 L 354.527344 17.316406 C 356.304688 15.816406 356.976563 14.617188 356.976563 12.914063 C 356.976563 10.566406 355.679688 9.292969 353.855469 9.292969 C 351.828125 9.292969 350.703125 10.640625 350.605469 13.589844 L 349.003906 13.589844 "/>
<path style=" stroke:none;fill-rule:nonzero;fill:rgb(0%,39.99939%,70.199585%);fill-opacity:1;" d="M 364.105469 12.191406 L 360.054688 12.191406 L 360.054688 11.089844 C 363.027344 11.066406 364.355469 9.890625 364.453125 8.042969 L 365.601563 8.042969 L 365.601563 25.738281 L 364.105469 25.738281 L 364.105469 12.191406 "/>
<path style=" stroke:none;fill-rule:nonzero;fill:rgb(0%,39.99939%,70.199585%);fill-opacity:1;" d="M 379.003906 8.34375 L 379.003906 9.691406 L 372.453125 9.691406 L 371.679688 15.863281 L 371.730469 15.914063 C 372.402344 14.617188 373.855469 14.117188 375.152344 14.117188 C 377.878906 14.117188 379.828125 16.039063 379.828125 19.964844 C 379.828125 23.511719 378.054688 26.039063 374.578125 26.039063 C 371.828125 26.039063 369.878906 24.3125 369.878906 21.214844 L 371.480469 21.214844 C 371.480469 23.214844 372.628906 24.789063 374.753906 24.789063 C 376.878906 24.789063 378.226563 23.039063 378.226563 19.714844 C 378.226563 17.265625 377.152344 15.363281 374.777344 15.363281 C 373.453125 15.363281 372.230469 15.988281 371.730469 17.414063 L 370.230469 17.414063 L 371.253906 8.34375 L 379.003906 8.34375 "/>
<path style=" stroke:none;fill-rule:nonzero;fill:rgb(0%,39.99939%,70.199585%);fill-opacity:1;" d="M 144.503906 42.09375 C 145.367188 42.09375 146.054688 42.78125 146.054688 43.644531 C 146.054688 44.511719 145.367188 45.199219 144.503906 45.199219 C 143.640625 45.199219 142.949219 44.511719 142.949219 43.644531 C 142.949219 42.78125 143.640625 42.09375 144.503906 42.09375 "/>
<path style=" stroke:none;fill-rule:nonzero;fill:rgb(0%,39.99939%,70.199585%);fill-opacity:1;" d="M 159.640625 43.148438 C 159.609375 41.035156 159.015625 40.269531 157.832031 40.269531 C 156.648438 40.269531 156.054688 41.035156 156.023438 43.148438 Z M 160.585938 45.34375 C 160.441406 47.152344 159.449219 48.351563 157.847656 48.351563 C 156.054688 48.351563 155 47.101563 155 43.902344 C 155 40.957031 156.054688 39.46875 157.929688 39.46875 C 159.816406 39.46875 160.664063 40.765625 160.664063 43.597656 L 160.664063 43.949219 L 156.023438 43.949219 L 156.023438 44.351563 C 156.023438 46.800781 156.886719 47.550781 157.832031 47.550781 C 158.839844 47.550781 159.464844 46.832031 159.625 45.34375 L 160.585938 45.34375 "/>
<path style=" stroke:none;fill-rule:nonzero;fill:rgb(0%,39.99939%,70.199585%);fill-opacity:1;" d="M 162.167969 39.660156 L 163.03125 39.660156 L 163.03125 40.84375 L 163.0625 40.84375 C 163.542969 39.898438 164.375 39.46875 165.238281 39.46875 C 166.535156 39.46875 167.417969 40.140625 167.417969 41.742188 L 167.417969 48.160156 L 166.457031 48.160156 L 166.457031 42.011719 C 166.457031 40.84375 165.976563 40.269531 165 40.269531 C 163.878906 40.269531 163.128906 41.132813 163.128906 42.445313 L 163.128906 48.160156 L 162.167969 48.160156 L 162.167969 39.660156 "/>
<path style=" stroke:none;fill-rule:nonzero;fill:rgb(0%,39.99939%,70.199585%);fill-opacity:1;" d="M 173.558594 43.148438 C 173.527344 41.035156 172.9375 40.269531 171.75 40.269531 C 170.566406 40.269531 169.976563 41.035156 169.941406 43.148438 Z M 174.503906 45.34375 C 174.359375 47.152344 173.367188 48.351563 171.765625 48.351563 C 169.976563 48.351563 168.917969 47.101563 168.917969 43.902344 C 168.917969 40.957031 169.976563 39.46875 171.847656 39.46875 C 173.734375 39.46875 174.585938 40.765625 174.585938 43.597656 L 174.585938 43.949219 L 169.941406 43.949219 L 169.941406 44.351563 C 169.941406 46.800781 170.808594 47.550781 171.75 47.550781 C 172.761719 47.550781 173.382813 46.832031 173.542969 45.34375 L 174.503906 45.34375 "/>
<path style=" stroke:none;fill-rule:nonzero;fill:rgb(0%,39.99939%,70.199585%);fill-opacity:1;" d="M 176.085938 39.660156 L 177.046875 39.660156 L 177.046875 40.988281 L 177.078125 40.988281 C 177.445313 40.042969 178.230469 39.46875 179.222656 39.46875 C 179.335938 39.46875 179.449219 39.484375 179.558594 39.515625 L 179.558594 40.476563 C 179.398438 40.445313 179.238281 40.429688 179.097656 40.429688 C 178.039063 40.429688 177.046875 41.195313 177.046875 42.84375 L 177.046875 48.160156 L 176.085938 48.160156 L 176.085938 39.660156 "/>
<path style=" stroke:none;fill-rule:nonzero;fill:rgb(0%,39.99939%,70.199585%);fill-opacity:1;" d="M 183.015625 47.359375 C 184.152344 47.359375 184.824219 46.527344 184.824219 43.804688 C 184.824219 41.101563 184.152344 40.269531 183.015625 40.269531 C 181.878906 40.269531 181.207031 41.101563 181.207031 43.804688 C 181.207031 46.527344 181.878906 47.359375 183.015625 47.359375 Z M 184.921875 39.660156 L 185.785156 39.660156 L 185.785156 47.550781 C 185.785156 49.902344 184.921875 51.105469 183 51.105469 C 181.351563 51.105469 180.484375 50.242188 180.46875 49.023438 L 181.429688 49.023438 C 181.429688 49.824219 182.183594 50.304688 183.03125 50.304688 C 184.199219 50.304688 184.824219 49.488281 184.824219 47.984375 L 184.824219 46.640625 L 184.792969 46.640625 C 184.488281 47.679688 183.6875 48.160156 182.808594 48.160156 C 181.496094 48.160156 180.183594 47.296875 180.183594 43.902344 C 180.183594 40.972656 181.03125 39.46875 182.902344 39.46875 C 183.832031 39.46875 184.585938 40.011719 184.886719 40.972656 L 184.921875 40.972656 L 184.921875 39.660156 "/>
<path style=" stroke:none;fill-rule:nonzero;fill:rgb(0%,39.99939%,70.199585%);fill-opacity:1;" d="M 186.871094 39.660156 L 187.894531 39.660156 L 189.800781 47.023438 L 189.832031 47.023438 L 191.542969 39.660156 L 192.566406 39.660156 L 190.085938 48.847656 C 189.640625 50.511719 189.128906 50.976563 187.828125 50.976563 C 187.574219 50.976563 187.382813 50.960938 187.191406 50.945313 L 187.191406 50.144531 C 187.398438 50.160156 187.605469 50.175781 187.8125 50.175781 C 188.40625 50.175781 188.808594 49.9375 189.078125 49.039063 L 189.320313 48.238281 L 186.871094 39.660156 "/>
<path style=" stroke:none;fill-rule:nonzero;fill:rgb(0%,39.99939%,70.199585%);fill-opacity:1;" d="M 201.734375 43.148438 C 201.703125 41.035156 201.109375 40.269531 199.925781 40.269531 C 198.742188 40.269531 198.148438 41.035156 198.117188 43.148438 Z M 202.679688 45.34375 C 202.535156 47.152344 201.542969 48.351563 199.941406 48.351563 C 198.148438 48.351563 197.09375 47.101563 197.09375 43.902344 C 197.09375 40.957031 198.148438 39.46875 200.023438 39.46875 C 201.910156 39.46875 202.761719 40.765625 202.761719 43.597656 L 202.761719 43.949219 L 198.117188 43.949219 L 198.117188 44.351563 C 198.117188 46.800781 198.980469 47.550781 199.925781 47.550781 C 200.9375 47.550781 201.558594 46.832031 201.71875 45.34375 L 202.679688 45.34375 "/>
<path style=" stroke:none;fill-rule:nonzero;fill:rgb(0%,39.99939%,70.199585%);fill-opacity:1;" d="M 204.613281 40.460938 L 203.445313 40.460938 L 203.445313 39.660156 L 204.613281 39.660156 L 204.613281 38.652344 C 204.613281 37.484375 204.855469 36.601563 206.472656 36.601563 C 206.757813 36.601563 206.902344 36.617188 207.078125 36.652344 L 207.078125 37.449219 C 206.933594 37.417969 206.789063 37.402344 206.613281 37.402344 C 205.910156 37.402344 205.574219 37.675781 205.574219 38.652344 L 205.574219 39.660156 L 207.078125 39.660156 L 207.078125 40.460938 L 205.574219 40.460938 L 205.574219 48.160156 L 204.613281 48.160156 L 204.613281 40.460938 "/>
<path style=" stroke:none;fill-rule:nonzero;fill:rgb(0%,39.99939%,70.199585%);fill-opacity:1;" d="M 212.054688 39.660156 L 213.015625 39.660156 L 213.015625 48.160156 L 212.054688 48.160156 Z M 212.054688 36.730469 L 213.015625 36.730469 L 213.015625 38.363281 L 212.054688 38.363281 Z M 208.46875 40.460938 L 207.300781 40.460938 L 207.300781 39.660156 L 208.46875 39.660156 L 208.46875 38.652344 C 208.46875 37.484375 208.710938 36.601563 210.328125 36.601563 C 210.613281 36.601563 210.757813 36.617188 210.933594 36.652344 L 210.933594 37.449219 C 210.789063 37.417969 210.644531 37.402344 210.472656 37.402344 C 209.765625 37.402344 209.429688 37.675781 209.429688 38.652344 L 209.429688 39.660156 L 210.933594 39.660156 L 210.933594 40.460938 L 209.429688 40.460938 L 209.429688 48.160156 L 208.46875 48.160156 L 208.46875 40.460938 "/>
<path style=" stroke:none;fill-rule:nonzero;fill:rgb(0%,39.99939%,70.199585%);fill-opacity:1;" d="M 220.039063 45.34375 C 219.894531 47.152344 218.902344 48.351563 217.335938 48.351563 C 215.539063 48.351563 214.484375 47.101563 214.484375 43.902344 C 214.484375 40.957031 215.539063 39.46875 217.414063 39.46875 C 219.015625 39.46875 219.941406 40.445313 220.039063 42.1875 L 219.078125 42.1875 C 218.96875 40.859375 218.4375 40.269531 217.414063 40.269531 C 216.375 40.269531 215.511719 40.910156 215.511719 43.917969 C 215.511719 47.117188 216.421875 47.550781 217.316406 47.550781 C 218.296875 47.550781 218.917969 46.832031 219.078125 45.34375 L 220.039063 45.34375 "/>
<path style=" stroke:none;fill-rule:nonzero;fill:rgb(0%,39.99939%,70.199585%);fill-opacity:1;" d="M 221.511719 39.660156 L 222.472656 39.660156 L 222.472656 48.160156 L 221.511719 48.160156 Z M 221.511719 36.730469 L 222.472656 36.730469 L 222.472656 38.363281 L 221.511719 38.363281 L 221.511719 36.730469 "/>
<path style=" stroke:none;fill-rule:nonzero;fill:rgb(0%,39.99939%,70.199585%);fill-opacity:1;" d="M 228.679688 43.148438 C 228.648438 41.035156 228.054688 40.269531 226.871094 40.269531 C 225.6875 40.269531 225.09375 41.035156 225.0625 43.148438 Z M 229.621094 45.34375 C 229.480469 47.152344 228.488281 48.351563 226.886719 48.351563 C 225.09375 48.351563 224.035156 47.101563 224.035156 43.902344 C 224.035156 40.957031 225.09375 39.46875 226.96875 39.46875 C 228.855469 39.46875 229.703125 40.765625 229.703125 43.597656 L 229.703125 43.949219 L 225.0625 43.949219 L 225.0625 44.351563 C 225.0625 46.800781 225.925781 47.550781 226.871094 47.550781 C 227.878906 47.550781 228.503906 46.832031 228.664063 45.34375 L 229.621094 45.34375 "/>
<path style=" stroke:none;fill-rule:nonzero;fill:rgb(0%,39.99939%,70.199585%);fill-opacity:1;" d="M 231.207031 39.660156 L 232.070313 39.660156 L 232.070313 40.84375 L 232.101563 40.84375 C 232.582031 39.898438 233.414063 39.46875 234.277344 39.46875 C 235.574219 39.46875 236.457031 40.140625 236.457031 41.742188 L 236.457031 48.160156 L 235.496094 48.160156 L 235.496094 42.011719 C 235.496094 40.84375 235.015625 40.269531 234.039063 40.269531 C 232.917969 40.269531 232.164063 41.132813 232.164063 42.445313 L 232.164063 48.160156 L 231.207031 48.160156 L 231.207031 39.660156 "/>
<path style=" stroke:none;fill-rule:nonzero;fill:rgb(0%,39.99939%,70.199585%);fill-opacity:1;" d="M 238.660156 40.460938 L 237.492188 40.460938 L 237.492188 39.660156 L 238.660156 39.660156 L 238.660156 37.308594 L 239.621094 37.308594 L 239.621094 39.660156 L 241.125 39.660156 L 241.125 40.460938 L 239.621094 40.460938 L 239.621094 46.558594 C 239.621094 47.230469 239.910156 47.457031 240.535156 47.457031 C 240.726563 47.457031 240.917969 47.421875 241.125 47.359375 L 241.125 48.160156 C 241.015625 48.222656 240.773438 48.253906 240.453125 48.253906 C 239.15625 48.253906 238.660156 47.902344 238.660156 46.765625 L 238.660156 40.460938 "/>
<path style=" stroke:none;fill-rule:nonzero;fill:rgb(0%,39.99939%,70.199585%);fill-opacity:1;" d="M 144.503906 64.84375 C 145.367188 64.84375 146.054688 65.535156 146.054688 66.398438 C 146.054688 67.261719 145.367188 67.949219 144.503906 67.949219 C 143.640625 67.949219 142.949219 67.261719 142.949219 66.398438 C 142.949219 65.535156 143.640625 64.84375 144.503906 64.84375 "/>
<path style=" stroke:none;fill-rule:nonzero;fill:rgb(0%,39.99939%,70.199585%);fill-opacity:1;" d="M 156.695313 66.6875 C 155.496094 66.222656 155.0625 65.515625 155.0625 64.667969 C 155.0625 62.925781 156.152344 62.21875 157.59375 62.21875 C 159.191406 62.21875 159.929688 63.035156 159.929688 64.589844 L 159.929688 64.828125 L 158.96875 64.828125 L 158.96875 64.589844 C 158.96875 63.484375 158.457031 63.019531 157.574219 63.019531 C 156.453125 63.019531 156.023438 63.613281 156.023438 64.460938 C 156.023438 65.054688 156.214844 65.515625 157.175781 65.886719 L 158.566406 66.414063 C 159.722656 66.847656 160.152344 67.644531 160.152344 68.574219 C 160.152344 70.03125 159.320313 71.105469 157.527344 71.105469 C 155.78125 71.105469 154.917969 70.382813 154.917969 68.460938 L 154.917969 68.191406 L 155.878906 68.191406 L 155.878906 68.414063 C 155.878906 69.664063 156.421875 70.304688 157.511719 70.304688 C 158.535156 70.304688 159.191406 69.726563 159.191406 68.78125 C 159.191406 68.03125 158.886719 67.550781 158.039063 67.214844 L 156.695313 66.6875 "/>
<path style=" stroke:none;fill-rule:nonzero;fill:rgb(0%,39.99939%,70.199585%);fill-opacity:1;" d="M 165.464844 66.109375 L 165.433594 66.109375 C 165.335938 66.398438 164.792969 66.574219 164.40625 66.667969 L 163.609375 66.878906 C 162.648438 67.132813 162.152344 67.628906 162.152344 68.640625 C 162.152344 69.632813 162.664063 70.304688 163.496094 70.304688 C 164.664063 70.304688 165.464844 69.421875 165.464844 67.902344 Z M 161.398438 64.941406 C 161.398438 63.195313 162.230469 62.21875 164.023438 62.21875 C 165.785156 62.21875 166.425781 63.132813 166.425781 64.476563 L 166.425781 69.503906 C 166.425781 69.984375 166.585938 70.207031 166.921875 70.207031 L 167.191406 70.207031 L 167.191406 70.910156 C 167.015625 70.976563 166.871094 71.007813 166.746094 71.007813 C 165.992188 71.007813 165.511719 70.832031 165.511719 69.953125 L 165.511719 69.664063 L 165.480469 69.664063 C 165.097656 70.785156 164.230469 71.105469 163.289063 71.105469 C 161.800781 71.105469 161.125 70.175781 161.125 68.703125 C 161.125 67.582031 161.640625 66.6875 162.839844 66.351563 L 164.648438 65.835938 C 165.320313 65.644531 165.464844 65.484375 165.464844 64.492188 C 165.464844 63.40625 164.855469 63.019531 163.992188 63.019531 C 162.855469 63.019531 162.359375 63.707031 162.359375 64.941406 L 161.398438 64.941406 "/>
<path style=" stroke:none;fill-rule:nonzero;fill:rgb(0%,39.99939%,70.199585%);fill-opacity:1;" d="M 167.621094 62.410156 L 168.644531 62.410156 L 170.535156 69.824219 L 170.566406 69.824219 L 172.296875 62.410156 L 173.320313 62.410156 L 171.078125 70.910156 L 169.992188 70.910156 L 167.621094 62.410156 "/>
<path style=" stroke:none;fill-rule:nonzero;fill:rgb(0%,39.99939%,70.199585%);fill-opacity:1;" d="M 178.648438 65.902344 C 178.617188 63.789063 178.023438 63.019531 176.839844 63.019531 C 175.65625 63.019531 175.0625 63.789063 175.03125 65.902344 Z M 179.59375 68.09375 C 179.449219 69.902344 178.457031 71.105469 176.855469 71.105469 C 175.0625 71.105469 174.007813 69.855469 174.007813 66.652344 C 174.007813 63.707031 175.0625 62.21875 176.9375 62.21875 C 178.824219 62.21875 179.671875 63.515625 179.671875 66.351563 L 179.671875 66.703125 L 175.03125 66.703125 L 175.03125 67.101563 C 175.03125 69.550781 175.894531 70.304688 176.839844 70.304688 C 177.847656 70.304688 178.472656 69.582031 178.632813 68.09375 L 179.59375 68.09375 "/>
<path style=" stroke:none;fill-rule:nonzero;fill:rgb(0%,39.99939%,70.199585%);fill-opacity:1;" d="M 185.015625 62.410156 L 185.976563 62.410156 L 185.976563 63.742188 L 186.007813 63.742188 C 186.375 62.796875 187.160156 62.21875 188.152344 62.21875 C 188.265625 62.21875 188.375 62.234375 188.488281 62.269531 L 188.488281 63.226563 C 188.328125 63.195313 188.167969 63.179688 188.023438 63.179688 C 186.96875 63.179688 185.976563 63.949219 185.976563 65.597656 L 185.976563 70.910156 L 185.015625 70.910156 L 185.015625 62.410156 "/>
<path style=" stroke:none;fill-rule:nonzero;fill:rgb(0%,39.99939%,70.199585%);fill-opacity:1;" d="M 193.753906 65.902344 C 193.71875 63.789063 193.128906 63.019531 191.941406 63.019531 C 190.757813 63.019531 190.167969 63.789063 190.132813 65.902344 Z M 194.695313 68.09375 C 194.550781 69.902344 193.558594 71.105469 191.960938 71.105469 C 190.167969 71.105469 189.109375 69.855469 189.109375 66.652344 C 189.109375 63.707031 190.167969 62.21875 192.039063 62.21875 C 193.929688 62.21875 194.777344 63.515625 194.777344 66.351563 L 194.777344 66.703125 L 190.132813 66.703125 L 190.132813 67.101563 C 190.132813 69.550781 191 70.304688 191.941406 70.304688 C 192.953125 70.304688 193.574219 69.582031 193.734375 68.09375 L 194.695313 68.09375 "/>
<path style=" stroke:none;fill-rule:nonzero;fill:rgb(0%,39.99939%,70.199585%);fill-opacity:1;" d="M 197.621094 66.6875 C 196.421875 66.222656 195.988281 65.515625 195.988281 64.667969 C 195.988281 62.925781 197.078125 62.21875 198.519531 62.21875 C 200.121094 62.21875 200.855469 63.035156 200.855469 64.589844 L 200.855469 64.828125 L 199.894531 64.828125 L 199.894531 64.589844 C 199.894531 63.484375 199.382813 63.019531 198.503906 63.019531 C 197.382813 63.019531 196.949219 63.613281 196.949219 64.460938 C 196.949219 65.054688 197.144531 65.515625 198.101563 65.886719 L 199.496094 66.414063 C 200.648438 66.847656 201.078125 67.644531 201.078125 68.574219 C 201.078125 70.03125 200.246094 71.105469 198.453125 71.105469 C 196.710938 71.105469 195.847656 70.382813 195.847656 68.460938 L 195.847656 68.191406 L 196.804688 68.191406 L 196.804688 68.414063 C 196.804688 69.664063 197.351563 70.304688 198.4375 70.304688 C 199.464844 70.304688 200.121094 69.726563 200.121094 68.78125 C 200.121094 68.03125 199.816406 67.550781 198.96875 67.214844 L 197.621094 66.6875 "/>
<path style=" stroke:none;fill-rule:nonzero;fill:rgb(0%,39.99939%,70.199585%);fill-opacity:1;" d="M 204.984375 70.304688 C 206.054688 70.304688 206.886719 69.375 206.886719 66.652344 C 206.886719 63.949219 206.054688 63.019531 204.984375 63.019531 C 203.910156 63.019531 203.078125 63.949219 203.078125 66.652344 C 203.078125 69.375 203.910156 70.304688 204.984375 70.304688 Z M 204.984375 62.21875 C 206.855469 62.21875 207.910156 63.707031 207.910156 66.652344 C 207.910156 69.613281 206.855469 71.105469 204.984375 71.105469 C 203.109375 71.105469 202.054688 69.613281 202.054688 66.652344 C 202.054688 63.707031 203.109375 62.21875 204.984375 62.21875 "/>
<path style=" stroke:none;fill-rule:nonzero;fill:rgb(0%,39.99939%,70.199585%);fill-opacity:1;" d="M 209.316406 62.410156 L 210.277344 62.410156 L 210.277344 68.398438 C 210.277344 69.773438 210.742188 70.304688 211.75 70.304688 C 212.839844 70.304688 213.605469 69.4375 213.605469 68.125 L 213.605469 62.410156 L 214.566406 62.410156 L 214.566406 70.910156 L 213.703125 70.910156 L 213.703125 69.726563 L 213.671875 69.726563 C 213.191406 70.671875 212.359375 71.105469 211.496094 71.105469 C 210.199219 71.105469 209.316406 70.429688 209.316406 68.832031 L 209.316406 62.410156 "/>
<path style=" stroke:none;fill-rule:nonzero;fill:rgb(0%,39.99939%,70.199585%);fill-opacity:1;" d="M 216.421875 62.410156 L 217.382813 62.410156 L 217.382813 63.742188 L 217.414063 63.742188 C 217.78125 62.796875 218.566406 62.21875 219.558594 62.21875 C 219.671875 62.21875 219.78125 62.234375 219.894531 62.269531 L 219.894531 63.226563 C 219.734375 63.195313 219.574219 63.179688 219.429688 63.179688 C 218.375 63.179688 217.382813 63.949219 217.382813 65.597656 L 217.382813 70.910156 L 216.421875 70.910156 L 216.421875 62.410156 "/>
<path style=" stroke:none;fill-rule:nonzero;fill:rgb(0%,39.99939%,70.199585%);fill-opacity:1;" d="M 225.976563 68.09375 C 225.832031 69.902344 224.839844 71.105469 223.269531 71.105469 C 221.480469 71.105469 220.421875 69.855469 220.421875 66.652344 C 220.421875 63.707031 221.480469 62.21875 223.351563 62.21875 C 224.949219 62.21875 225.878906 63.195313 225.976563 64.941406 L 225.015625 64.941406 C 224.902344 63.613281 224.375 63.019531 223.351563 63.019531 C 222.3125 63.019531 221.445313 63.660156 221.445313 66.667969 C 221.445313 69.871094 222.359375 70.304688 223.253906 70.304688 C 224.230469 70.304688 224.855469 69.582031 225.015625 68.09375 L 225.976563 68.09375 "/>
<path style=" stroke:none;fill-rule:nonzero;fill:rgb(0%,39.99939%,70.199585%);fill-opacity:1;" d="M 231.671875 65.902344 C 231.640625 63.789063 231.046875 63.019531 229.863281 63.019531 C 228.679688 63.019531 228.085938 63.789063 228.054688 65.902344 Z M 232.613281 68.09375 C 232.472656 69.902344 231.480469 71.105469 229.878906 71.105469 C 228.085938 71.105469 227.027344 69.855469 227.027344 66.652344 C 227.027344 63.707031 228.085938 62.21875 229.960938 62.21875 C 231.847656 62.21875 232.695313 63.515625 232.695313 66.351563 L 232.695313 66.703125 L 228.054688 66.703125 L 228.054688 67.101563 C 228.054688 69.550781 228.917969 70.304688 229.863281 70.304688 C 230.871094 70.304688 231.496094 69.582031 231.65625 68.09375 L 232.613281 68.09375 "/>
<path style=" stroke:none;fill-rule:nonzero;fill:rgb(0%,39.99939%,70.199585%);fill-opacity:1;" d="M 235.542969 66.6875 C 234.34375 66.222656 233.910156 65.515625 233.910156 64.667969 C 233.910156 62.925781 234.996094 62.21875 236.4375 62.21875 C 238.039063 62.21875 238.773438 63.035156 238.773438 64.589844 L 238.773438 64.828125 L 237.816406 64.828125 L 237.816406 64.589844 C 237.816406 63.484375 237.304688 63.019531 236.421875 63.019531 C 235.304688 63.019531 234.871094 63.613281 234.871094 64.460938 C 234.871094 65.054688 235.0625 65.515625 236.023438 65.886719 L 237.414063 66.414063 C 238.566406 66.847656 239 67.644531 239 68.574219 C 239 70.03125 238.167969 71.105469 236.375 71.105469 C 234.628906 71.105469 233.765625 70.382813 233.765625 68.460938 L 233.765625 68.191406 L 234.726563 68.191406 L 234.726563 68.414063 C 234.726563 69.664063 235.269531 70.304688 236.359375 70.304688 C 237.382813 70.304688 238.039063 69.726563 238.039063 68.78125 C 238.039063 68.03125 237.734375 67.550781 236.886719 67.214844 L 235.542969 66.6875 "/>
<path style=" stroke:none;fill-rule:nonzero;fill:rgb(0%,39.99939%,70.199585%);fill-opacity:1;" d="M 144.503906 87.597656 C 145.367188 87.597656 146.054688 88.285156 146.054688 89.148438 C 146.054688 90.015625 145.367188 90.703125 144.503906 90.703125 C 143.640625 90.703125 142.949219 90.015625 142.949219 89.148438 C 142.949219 88.285156 143.640625 87.597656 144.503906 87.597656 "/>
<path style=" stroke:none;fill-rule:nonzero;fill:rgb(0%,39.99939%,70.199585%);fill-opacity:1;" d="M 155.703125 85.964844 L 154.535156 85.964844 L 154.535156 85.164063 L 155.703125 85.164063 L 155.703125 82.8125 L 156.664063 82.8125 L 156.664063 85.164063 L 158.167969 85.164063 L 158.167969 85.964844 L 156.664063 85.964844 L 156.664063 92.0625 C 156.664063 92.734375 156.949219 92.960938 157.574219 92.960938 C 157.769531 92.960938 157.960938 92.925781 158.167969 92.863281 L 158.167969 93.664063 C 158.054688 93.726563 157.816406 93.757813 157.496094 93.757813 C 156.199219 93.757813 155.703125 93.40625 155.703125 92.269531 L 155.703125 85.964844 "/>
<path style=" stroke:none;fill-rule:nonzero;fill:rgb(0%,39.99939%,70.199585%);fill-opacity:1;" d="M 159.207031 85.164063 L 160.167969 85.164063 L 160.167969 86.492188 L 160.199219 86.492188 C 160.566406 85.546875 161.351563 84.972656 162.34375 84.972656 C 162.457031 84.972656 162.566406 84.988281 162.679688 85.019531 L 162.679688 85.980469 C 162.519531 85.949219 162.359375 85.933594 162.214844 85.933594 C 161.160156 85.933594 160.167969 86.699219 160.167969 88.347656 L 160.167969 93.664063 L 159.207031 93.664063 L 159.207031 85.164063 "/>
<path style=" stroke:none;fill-rule:nonzero;fill:rgb(0%,39.99939%,70.199585%);fill-opacity:1;" d="M 167.542969 88.863281 L 167.511719 88.863281 C 167.417969 89.148438 166.871094 89.324219 166.488281 89.421875 L 165.6875 89.628906 C 164.726563 89.886719 164.230469 90.382813 164.230469 91.390625 C 164.230469 92.382813 164.742188 93.054688 165.574219 93.054688 C 166.742188 93.054688 167.542969 92.175781 167.542969 90.65625 Z M 163.480469 87.691406 C 163.480469 85.949219 164.3125 84.972656 166.105469 84.972656 C 167.863281 84.972656 168.503906 85.882813 168.503906 87.230469 L 168.503906 92.253906 C 168.503906 92.734375 168.664063 92.960938 169 92.960938 L 169.273438 92.960938 L 169.273438 93.664063 C 169.097656 93.726563 168.953125 93.757813 168.824219 93.757813 C 168.074219 93.757813 167.59375 93.582031 167.59375 92.703125 L 167.59375 92.414063 L 167.5625 92.414063 C 167.175781 93.535156 166.3125 93.855469 165.367188 93.855469 C 163.878906 93.855469 163.207031 92.925781 163.207031 91.453125 C 163.207031 90.335938 163.71875 89.4375 164.917969 89.101563 L 166.726563 88.589844 C 167.398438 88.398438 167.542969 88.238281 167.542969 87.246094 C 167.542969 86.15625 166.9375 85.773438 166.070313 85.773438 C 164.9375 85.773438 164.4375 86.460938 164.4375 87.691406 L 163.480469 87.691406 "/>
<path style=" stroke:none;fill-rule:nonzero;fill:rgb(0%,39.99939%,70.199585%);fill-opacity:1;" d="M 170.46875 85.164063 L 171.335938 85.164063 L 171.335938 86.347656 L 171.367188 86.347656 C 171.847656 85.402344 172.679688 84.972656 173.542969 84.972656 C 174.839844 84.972656 175.722656 85.644531 175.722656 87.246094 L 175.722656 93.664063 L 174.761719 93.664063 L 174.761719 87.515625 C 174.761719 86.347656 174.28125 85.773438 173.304688 85.773438 C 172.183594 85.773438 171.429688 86.636719 171.429688 87.949219 L 171.429688 93.664063 L 170.46875 93.664063 L 170.46875 85.164063 "/>
<path style=" stroke:none;fill-rule:nonzero;fill:rgb(0%,39.99939%,70.199585%);fill-opacity:1;" d="M 178.917969 89.4375 C 177.71875 88.972656 177.285156 88.269531 177.285156 87.421875 C 177.285156 85.675781 178.375 84.972656 179.816406 84.972656 C 181.414063 84.972656 182.152344 85.789063 182.152344 87.339844 L 182.152344 87.582031 L 181.191406 87.582031 L 181.191406 87.339844 C 181.191406 86.238281 180.679688 85.773438 179.800781 85.773438 C 178.679688 85.773438 178.246094 86.363281 178.246094 87.214844 C 178.246094 87.804688 178.4375 88.269531 179.398438 88.636719 L 180.792969 89.164063 C 181.945313 89.597656 182.375 90.398438 182.375 91.328125 C 182.375 92.785156 181.542969 93.855469 179.75 93.855469 C 178.007813 93.855469 177.140625 93.136719 177.140625 91.214844 L 177.140625 90.941406 L 178.101563 90.941406 L 178.101563 91.167969 C 178.101563 92.414063 178.648438 93.054688 179.734375 93.054688 C 180.761719 93.054688 181.414063 92.480469 181.414063 91.535156 C 181.414063 90.78125 181.113281 90.300781 180.265625 89.964844 L 178.917969 89.4375 "/>
<path style=" stroke:none;fill-rule:nonzero;fill:rgb(0%,39.99939%,70.199585%);fill-opacity:1;" d="M 186.550781 85.773438 C 186.007813 85.773438 185.527344 86.058594 185.207031 86.523438 C 184.789063 87.117188 184.664063 87.949219 184.664063 89.421875 C 184.664063 92.558594 185.542969 93.054688 186.519531 93.054688 C 187.480469 93.054688 188.375 92.558594 188.375 89.421875 C 188.375 86.332031 187.480469 85.773438 186.550781 85.773438 Z M 183.703125 85.164063 L 184.566406 85.164063 L 184.566406 86.378906 L 184.597656 86.378906 C 184.902344 85.597656 185.605469 84.972656 186.695313 84.972656 C 188.585938 84.972656 189.402344 86.476563 189.402344 89.421875 C 189.402344 92.351563 188.550781 93.855469 186.679688 93.855469 C 185.621094 93.855469 184.902344 93.28125 184.695313 92.382813 L 184.664063 92.382813 L 184.664063 96.480469 L 183.703125 96.480469 L 183.703125 85.164063 "/>
<path style=" stroke:none;fill-rule:nonzero;fill:rgb(0%,39.99939%,70.199585%);fill-opacity:1;" d="M 194.792969 88.863281 L 194.761719 88.863281 C 194.664063 89.148438 194.117188 89.324219 193.734375 89.421875 L 192.933594 89.628906 C 191.976563 89.886719 191.476563 90.382813 191.476563 91.390625 C 191.476563 92.382813 191.988281 93.054688 192.824219 93.054688 C 193.992188 93.054688 194.792969 92.175781 194.792969 90.65625 Z M 190.726563 87.691406 C 190.726563 85.949219 191.558594 84.972656 193.351563 84.972656 C 195.113281 84.972656 195.753906 85.882813 195.753906 87.230469 L 195.753906 92.253906 C 195.753906 92.734375 195.910156 92.960938 196.246094 92.960938 L 196.519531 92.960938 L 196.519531 93.664063 C 196.34375 93.726563 196.199219 93.757813 196.070313 93.757813 C 195.320313 93.757813 194.839844 93.582031 194.839844 92.703125 L 194.839844 92.414063 L 194.808594 92.414063 C 194.421875 93.535156 193.558594 93.855469 192.613281 93.855469 C 191.125 93.855469 190.453125 92.925781 190.453125 91.453125 C 190.453125 90.335938 190.964844 89.4375 192.167969 89.101563 L 193.976563 88.589844 C 194.648438 88.398438 194.792969 88.238281 194.792969 87.246094 C 194.792969 86.15625 194.183594 85.773438 193.320313 85.773438 C 192.183594 85.773438 191.6875 86.460938 191.6875 87.691406 L 190.726563 87.691406 "/>
<path style=" stroke:none;fill-rule:nonzero;fill:rgb(0%,39.99939%,70.199585%);fill-opacity:1;" d="M 197.71875 85.164063 L 198.679688 85.164063 L 198.679688 86.492188 L 198.710938 86.492188 C 199.078125 85.546875 199.863281 84.972656 200.855469 84.972656 C 200.96875 84.972656 201.078125 84.988281 201.191406 85.019531 L 201.191406 85.980469 C 201.03125 85.949219 200.871094 85.933594 200.726563 85.933594 C 199.671875 85.933594 198.679688 86.699219 198.679688 88.347656 L 198.679688 93.664063 L 197.71875 93.664063 L 197.71875 85.164063 "/>
<path style=" stroke:none;fill-rule:nonzero;fill:rgb(0%,39.99939%,70.199585%);fill-opacity:1;" d="M 206.453125 88.652344 C 206.425781 86.539063 205.832031 85.773438 204.644531 85.773438 C 203.460938 85.773438 202.871094 86.539063 202.839844 88.652344 Z M 207.398438 90.847656 C 207.257813 92.65625 206.265625 93.855469 204.664063 93.855469 C 202.871094 93.855469 201.8125 92.605469 201.8125 89.40625 C 201.8125 86.460938 202.871094 84.972656 204.742188 84.972656 C 206.632813 84.972656 207.480469 86.269531 207.480469 89.101563 L 207.480469 89.453125 L 202.839844 89.453125 L 202.839844 89.855469 C 202.839844 92.304688 203.703125 93.054688 204.644531 93.054688 C 205.65625 93.054688 206.277344 92.335938 206.4375 90.847656 L 207.398438 90.847656 "/>
<path style=" stroke:none;fill-rule:nonzero;fill:rgb(0%,39.99939%,70.199585%);fill-opacity:1;" d="M 208.980469 85.164063 L 209.847656 85.164063 L 209.847656 86.347656 L 209.878906 86.347656 C 210.359375 85.402344 211.191406 84.972656 212.054688 84.972656 C 213.351563 84.972656 214.230469 85.644531 214.230469 87.246094 L 214.230469 93.664063 L 213.269531 93.664063 L 213.269531 87.515625 C 213.269531 86.347656 212.792969 85.773438 211.816406 85.773438 C 210.695313 85.773438 209.941406 86.636719 209.941406 87.949219 L 209.941406 93.664063 L 208.980469 93.664063 L 208.980469 85.164063 "/>
<path style=" stroke:none;fill-rule:nonzero;fill:rgb(0%,39.99939%,70.199585%);fill-opacity:1;" d="M 216.4375 85.964844 L 215.269531 85.964844 L 215.269531 85.164063 L 216.4375 85.164063 L 216.4375 82.8125 L 217.398438 82.8125 L 217.398438 85.164063 L 218.902344 85.164063 L 218.902344 85.964844 L 217.398438 85.964844 L 217.398438 92.0625 C 217.398438 92.734375 217.6875 92.960938 218.3125 92.960938 C 218.503906 92.960938 218.695313 92.925781 218.902344 92.863281 L 218.902344 93.664063 C 218.789063 93.726563 218.550781 93.757813 218.230469 93.757813 C 216.933594 93.757813 216.4375 93.40625 216.4375 92.269531 L 216.4375 85.964844 "/>
<path style=" stroke:none;fill-rule:nonzero;fill:rgb(0%,39.99939%,70.199585%);fill-opacity:1;" d="M 223.847656 85.164063 L 224.808594 85.164063 L 224.808594 93.664063 L 223.847656 93.664063 Z M 223.847656 82.234375 L 224.808594 82.234375 L 224.808594 83.867188 L 223.847656 83.867188 L 223.847656 82.234375 "/>
<path style=" stroke:none;fill-rule:nonzero;fill:rgb(0%,39.99939%,70.199585%);fill-opacity:1;" d="M 226.726563 85.164063 L 227.589844 85.164063 L 227.589844 86.347656 L 227.621094 86.347656 C 228.101563 85.402344 228.933594 84.972656 229.800781 84.972656 C 231.09375 84.972656 231.976563 85.644531 231.976563 87.246094 L 231.976563 93.664063 L 231.015625 93.664063 L 231.015625 87.515625 C 231.015625 86.347656 230.535156 85.773438 229.558594 85.773438 C 228.4375 85.773438 227.6875 86.636719 227.6875 87.949219 L 227.6875 93.664063 L 226.726563 93.664063 L 226.726563 85.164063 "/>
<path style=" stroke:none;fill-rule:nonzero;fill:rgb(0%,39.99939%,70.199585%);fill-opacity:1;" d="M 234.179688 85.964844 L 233.011719 85.964844 L 233.011719 85.164063 L 234.179688 85.164063 L 234.179688 82.8125 L 235.140625 82.8125 L 235.140625 85.164063 L 236.644531 85.164063 L 236.644531 85.964844 L 235.140625 85.964844 L 235.140625 92.0625 C 235.140625 92.734375 235.429688 92.960938 236.054688 92.960938 C 236.246094 92.960938 236.4375 92.925781 236.644531 92.863281 L 236.644531 93.664063 C 236.535156 93.726563 236.292969 93.757813 235.972656 93.757813 C 234.675781 93.757813 234.179688 93.40625 234.179688 92.269531 L 234.179688 85.964844 "/>
<path style=" stroke:none;fill-rule:nonzero;fill:rgb(0%,39.99939%,70.199585%);fill-opacity:1;" d="M 241.976563 88.652344 C 241.941406 86.539063 241.351563 85.773438 240.164063 85.773438 C 238.980469 85.773438 238.390625 86.539063 238.355469 88.652344 Z M 242.917969 90.847656 C 242.773438 92.65625 241.78125 93.855469 240.183594 93.855469 C 238.390625 93.855469 237.332031 92.605469 237.332031 89.40625 C 237.332031 86.460938 238.390625 84.972656 240.261719 84.972656 C 242.152344 84.972656 243 86.269531 243 89.101563 L 243 89.453125 L 238.355469 89.453125 L 238.355469 89.855469 C 238.355469 92.304688 239.222656 93.054688 240.164063 93.054688 C 241.175781 93.054688 241.800781 92.335938 241.960938 90.847656 L 242.917969 90.847656 "/>
<path style=" stroke:none;fill-rule:nonzero;fill:rgb(0%,39.99939%,70.199585%);fill-opacity:1;" d="M 244.5 85.164063 L 245.460938 85.164063 L 245.460938 86.492188 L 245.492188 86.492188 C 245.859375 85.546875 246.644531 84.972656 247.636719 84.972656 C 247.75 84.972656 247.863281 84.988281 247.972656 85.019531 L 247.972656 85.980469 C 247.8125 85.949219 247.652344 85.933594 247.511719 85.933594 C 246.453125 85.933594 245.460938 86.699219 245.460938 88.347656 L 245.460938 93.664063 L 244.5 93.664063 L 244.5 85.164063 "/>
<path style=" stroke:none;fill-rule:nonzero;fill:rgb(0%,39.99939%,70.199585%);fill-opacity:1;" d="M 249.300781 85.964844 L 248.132813 85.964844 L 248.132813 85.164063 L 249.300781 85.164063 L 249.300781 84.15625 C 249.300781 82.988281 249.539063 82.105469 251.15625 82.105469 C 251.445313 82.105469 251.589844 82.121094 251.765625 82.15625 L 251.765625 82.957031 C 251.621094 82.921875 251.476563 82.90625 251.300781 82.90625 C 250.597656 82.90625 250.261719 83.179688 250.261719 84.15625 L 250.261719 85.164063 L 251.765625 85.164063 L 251.765625 85.964844 L 250.261719 85.964844 L 250.261719 93.664063 L 249.300781 93.664063 L 249.300781 85.964844 "/>
<path style=" stroke:none;fill-rule:nonzero;fill:rgb(0%,39.99939%,70.199585%);fill-opacity:1;" d="M 256.695313 88.863281 L 256.664063 88.863281 C 256.566406 89.148438 256.023438 89.324219 255.640625 89.421875 L 254.839844 89.628906 C 253.878906 89.886719 253.382813 90.382813 253.382813 91.390625 C 253.382813 92.382813 253.894531 93.054688 254.726563 93.054688 C 255.894531 93.054688 256.695313 92.175781 256.695313 90.65625 Z M 252.628906 87.691406 C 252.628906 85.949219 253.460938 84.972656 255.253906 84.972656 C 257.015625 84.972656 257.65625 85.882813 257.65625 87.230469 L 257.65625 92.253906 C 257.65625 92.734375 257.816406 92.960938 258.152344 92.960938 L 258.425781 92.960938 L 258.425781 93.664063 C 258.246094 93.726563 258.105469 93.757813 257.976563 93.757813 C 257.222656 93.757813 256.742188 93.582031 256.742188 92.703125 L 256.742188 92.414063 L 256.710938 92.414063 C 256.328125 93.535156 255.464844 93.855469 254.519531 93.855469 C 253.027344 93.855469 252.355469 92.925781 252.355469 91.453125 C 252.355469 90.335938 252.867188 89.4375 254.070313 89.101563 L 255.878906 88.589844 C 256.550781 88.398438 256.695313 88.238281 256.695313 87.246094 C 256.695313 86.15625 256.085938 85.773438 255.222656 85.773438 C 254.085938 85.773438 253.589844 86.460938 253.589844 87.691406 L 252.628906 87.691406 "/>
<path style=" stroke:none;fill-rule:nonzero;fill:rgb(0%,39.99939%,70.199585%);fill-opacity:1;" d="M 264.726563 90.847656 C 264.582031 92.65625 263.589844 93.855469 262.019531 93.855469 C 260.230469 93.855469 259.171875 92.605469 259.171875 89.40625 C 259.171875 86.460938 260.230469 84.972656 262.101563 84.972656 C 263.703125 84.972656 264.632813 85.949219 264.726563 87.691406 L 263.765625 87.691406 C 263.652344 86.363281 263.125 85.773438 262.101563 85.773438 C 261.0625 85.773438 260.195313 86.414063 260.195313 89.421875 C 260.195313 92.625 261.109375 93.054688 262.007813 93.054688 C 262.980469 93.054688 263.605469 92.335938 263.765625 90.847656 L 264.726563 90.847656 "/>
<path style=" stroke:none;fill-rule:nonzero;fill:rgb(0%,39.99939%,70.199585%);fill-opacity:1;" d="M 270.421875 88.652344 C 270.390625 86.539063 269.796875 85.773438 268.613281 85.773438 C 267.429688 85.773438 266.835938 86.539063 266.804688 88.652344 Z M 271.367188 90.847656 C 271.222656 92.65625 270.230469 93.855469 268.628906 93.855469 C 266.835938 93.855469 265.78125 92.605469 265.78125 89.40625 C 265.78125 86.460938 266.835938 84.972656 268.710938 84.972656 C 270.597656 84.972656 271.445313 86.269531 271.445313 89.101563 L 271.445313 89.453125 L 266.804688 89.453125 L 266.804688 89.855469 C 266.804688 92.304688 267.667969 93.054688 268.613281 93.054688 C 269.621094 93.054688 270.246094 92.335938 270.40625 90.847656 L 271.367188 90.847656 "/>
<path style=" stroke:none;fill-rule:nonzero;fill:rgb(0%,39.99939%,70.199585%);fill-opacity:1;" d="M 274.292969 89.4375 C 273.09375 88.972656 272.660156 88.269531 272.660156 87.421875 C 272.660156 85.675781 273.75 84.972656 275.1875 84.972656 C 276.789063 84.972656 277.527344 85.789063 277.527344 87.339844 L 277.527344 87.582031 L 276.566406 87.582031 L 276.566406 87.339844 C 276.566406 86.238281 276.054688 85.773438 275.175781 85.773438 C 274.054688 85.773438 273.621094 86.363281 273.621094 87.214844 C 273.621094 87.804688 273.8125 88.269531 274.773438 88.636719 L 276.164063 89.164063 C 277.316406 89.597656 277.75 90.398438 277.75 91.328125 C 277.75 92.785156 276.917969 93.855469 275.125 93.855469 C 273.382813 93.855469 272.515625 93.136719 272.515625 91.214844 L 272.515625 90.941406 L 273.476563 90.941406 L 273.476563 91.167969 C 273.476563 92.414063 274.019531 93.054688 275.109375 93.054688 C 276.132813 93.054688 276.789063 92.480469 276.789063 91.535156 C 276.789063 90.78125 276.484375 90.300781 275.636719 89.964844 L 274.292969 89.4375 "/>
</g>
</svg>
