<?xml version="1.0" encoding="UTF-8"?>
<svg width="32" height="32" version="1.1" viewBox="0 0 32 32" xmlns="http://www.w3.org/2000/svg">
 <rect width="32" height="32" rx="4" ry="4" fill="#00a846" style="paint-order:markers stroke fill"/>
 <path d="m6.9596 8.222c-0.11217 2e-3 -0.22327 9e-3 -0.33304 0.022-0.87819 0.10114-1.6692 0.56831-2.1541 1.3848-0.47516 0.8-0.59207 1.6809-0.3499 2.4971s0.82879 1.5578 1.6973 2.1453a0.36394 0.36394 0 0 0 0.016 0.0102c0.74509 0.44927 1.4871 0.75185 2.2818 0.90825-0.0194 0.32812-0.02 0.66476 1e-3 1.01 0.0634 1.0427 0.43337 2.0017 0.99201 2.85l-2.0035 0.81787a0.41589 0.41589 0 0 0-0.2279 0.54226 0.41589 0.41589 0 0 0 0.54225 0.22785l2.2025-0.89911c0.40824 0.48671 0.87651 0.92792 1.3799 1.3148 0.0193 0.0148 0.0394 0.0282 0.0588 0.0428l-1.2903 1.7085a0.41589 0.41589 0 0 0 0.0813 0.58256 0.41589 0.41589 0 0 0 0.58252-0.0813l1.3111-1.7361c0.71919 0.4552 1.4815 0.80998 2.2348 1.0449 0.38634 0.71079 1.1429 1.1637 2.0179 1.1637 0.88349 0 1.6408-0.48733 2.0238-1.1844 0.74558-0.2393 1.4988-0.59516 2.2104-1.0487l1.3296 1.7605a0.41589 0.41589 0 0 0 0.58251 0.0813 0.41589 0.41589 0 0 0 0.0813-0.58256l-1.3094-1.7338c9e-3 -7e-3 0.0178-0.0126 0.0264-0.0192 0.49739-0.38074 0.96185-0.81348 1.3693-1.2904l2.1467 0.87631a0.41589 0.41589 0 0 0 0.54221-0.22785 0.41589 0.41589 0 0 0-0.22785-0.54226l-1.9396-0.79183c0.57642-0.85341 0.96487-1.8194 1.0456-2.8703 0.0267-0.34745 0.0308-0.68716 0.0154-1.0189 0.78945-0.15714 1.5271-0.45849 2.2678-0.9051a0.36394 0.36394 0 0 0 0.016-0.0102c0.86849-0.58749 1.4551-1.3291 1.6973-2.1453 0.24217-0.81624 0.12526-1.6971-0.34989-2.4971-0.48492-0.81644-1.2759-1.2836-2.1541-1.3848-0.10977-0.0126-0.22086-0.02-0.33304-0.022-0.78519-0.0142-1.623 0.22937-2.4286 0.6944-0.59274 0.34218-1.1265 0.8665-1.5447 1.4383-1.1697-0.6696-2.6914-1.047-4.5616-1.0779-0.16772-3e-3 -0.33824-3e-3 -0.51154 5e-5 -2.085 0.034-3.7537 0.42958-5.0142 1.1444a0.36391 0.36391 0 0 0-9e-3 -0.0155c-0.42343-0.59171-0.97243-1.1369-1.5829-1.4893-0.80556-0.46503-1.6434-0.70856-2.4286-0.6944zm0.0128 0.72801c0.62611-0.0101 1.3412 0.18643 2.0519 0.59668 0.4848 0.27987 0.97436 0.75559 1.3448 1.2697-0.17523 0.12866-0.34138 0.26431-0.49671 0.40808-0.92163 0.853-1.4701 1.9613-1.6759 3.2376-0.67872-0.14042-1.3116-0.39941-1.9754-0.79853-0.75538-0.51279-1.2162-1.1227-1.4007-1.7447-0.18511-0.62394-0.10719-1.2701 0.2779-1.9184 0.37427-0.63015 0.92731-0.95463 1.6116-1.0334 0.0855-0.01 0.17318-0.0155 0.26262-0.017zm18.055 0c0.0894 1e-3 0.17709 7e-3 0.26262 0.017 0.68429 0.0788 1.2373 0.40329 1.6116 1.0334 0.38509 0.64837 0.46302 1.2945 0.27791 1.9184-0.18455 0.62203-0.64537 1.2319-1.4008 1.7447-0.65633 0.39462-1.2826 0.65191-1.9527 0.79335-0.19333-1.2997-0.74317-2.4372-1.6734-3.3069-0.14856-0.13889-0.30687-0.27019-0.47367-0.39472 0.3645-0.48996 0.8314-0.94003 1.2965-1.2085 0.71066-0.41025 1.4258-0.60676 2.0519-0.59668zm-8.5343 1.0545c2.3902 0.0392 4.0843 0.669 5.1626 1.6771 1.1502 1.0753 1.6428 2.6016 1.4994 4.4681-0.13115 1.708-1.2212 3.2282-2.6529 4.3241-0.69023 0.52834-1.4582 0.95163-2.218 1.2495 4e-3 -0.0516 7e-3 -0.10352 7e-3 -0.15591 3e-3 -1.1964-0.93058-2.2129-2.2911-2.2129-1.3606 0-2.3213 1.0152-2.291 2.2212 1e-3 0.058 6e-3 0.11491 0.011 0.17134-0.77875-0.29818-1.5675-0.7287-2.2725-1.2706-1.424-1.0946-2.4984-2.6118-2.6023-4.3209-0.11295-1.8568 0.37814-3.3385 1.5216-4.3968 1.1434-1.0583 2.9852-1.7107 5.6392-1.754 0.16556-3e-3 0.32797-3e-3 0.48732-1e-4zm-4.1296 6.8277c-0.60532 0-1.096 0.49152-1.096 1.0978 0 0.6063 0.49071 1.0978 1.096 1.0978s1.096-0.49152 1.096-1.0978c0-0.60629-0.49072-1.0978-1.096-1.0978zm7.2826 0.0101c-0.59979 0-1.086 0.48701-1.086 1.0878 0 0.60076 0.48619 1.0878 1.086 1.0878 0.5998 0 1.086-0.487 1.086-1.0878 0-0.60075-0.48624-1.0878-1.086-1.0878zm-3.6463 3.24c1.0238 0 1.5653 0.63842 1.5633 1.4834-2e-3 0.7849-0.67217 1.4851-1.5633 1.4851-0.91678 0-1.5399-0.5633-1.5634-1.4934-0.021-0.83475 0.53964-1.4751 1.5634-1.4751z" fill="#fff" stroke-linecap="round" stroke-linejoin="round" stroke-width=".025993"/>
</svg>
